module unitializr-back

go 1.14

require (
	github.com/PuerkitoBio/goquery v1.5.1
	github.com/gin-gonic/gin v1.6.3
	github.com/go-co-op/gocron v0.3.0
	github.com/go-playground/validator/v10 v10.3.0 // indirect
	github.com/golang/protobuf v1.4.2 // indirect
	github.com/jinzhu/gorm v1.9.15
	github.com/json-iterator/go v1.1.10 // indirect
	github.com/modern-go/concurrent v0.0.0-20180306012644-bacd9c7ef1dd // indirect
	github.com/modern-go/reflect2 v1.0.1 // indirect
	golang.org/x/sys v0.0.0-20200806125547-5acd03effb82 // indirect
	google.golang.org/protobuf v1.25.0 // indirect
	gopkg.in/yaml.v2 v2.3.0 // indirect
)
